"","year","chl_mean","chl_min","chl_max","chl_sd","chl_se","pcb_mean","pcb_min","pcb_max","pcb_sd","pcb_se"
"1",1992,0.373855619167957,0.051310770213604,1.30961453914642,0.398240019396312,0.139321308134416,3.4121224662067,0.615988314151764,12.7569847106934,3.52620065062502,1.23361506494055
"2",1993,0.346997249458,0.0517094992101192,1.32417106628418,0.327717738529578,0.114649612813915,4.60968379721161,0.579611837863922,15.8759517669678,4.42535038551391,1.54817591059169
"3",1994,0.213788027963015,0.0663513168692589,0.599635183811188,0.15669217748258,0.054817592602561,2.95308441205349,0.852736175060272,8.70787620544434,2.4296914886145,0.850009491938977
"4",1995,0.33461875273182,0.0703144073486328,0.990258872509003,0.27377090289908,0.0957767136985858,4.38079893071344,0.803189516067505,14.2626161575317,3.32421365494101,1.16295141715473
"5",1996,0.212699017429644,0.0368099585175514,0.746861279010773,0.176352533161775,0.0616956217764386,2.651563534472,0.558641374111176,7.64345359802246,2.10030391171791,0.734775698594894
"6",1997,0.199189939019609,0.0419624447822571,0.469280749559402,0.1066276566397,0.0373028924337379,2.84557426978873,0.737303495407104,6.10171747207642,1.27947170203902,0.4476136565061
"7",1998,0.229618748494927,0.0174918286502361,0.744605541229248,0.218884039086018,0.076574952716796,3.38227351090437,0.29693928360939,10.1271924972534,3.11252259808685,1.08889287576056
"8",1999,0.225493263076437,0.0294537842273712,0.446135252714157,0.121490644503423,0.0425025981667248,3.61670167545971,0.51636153459549,6.70897102355957,1.79420507940276,0.627689299289244
"9",2000,0.199855541746307,0.0147215556353331,0.641008794307709,0.18871323236703,0.0660199204376897,2.7182049418668,0.249845534563065,6.87340068817139,2.23651316509212,0.782427492578015
"10",2001,0.14914164208436,0.0162132605910301,0.613842487335205,0.166837287098171,0.0583667837284399,1.92617726487788,0.280642926692963,5.15306663513184,1.63424051427708,0.571726886214216
"11",2002,0.193358620278312,0.0137814600020647,0.794481515884399,0.182815559387189,0.0639566634206125,2.89555937655334,0.236434102058411,8.97640514373779,2.24012765458344,0.78369199483706
"12",2003,0.194588242114237,0.0159377809613943,0.632637977600098,0.196945750989921,0.0689000058332278,2.28003368172877,0.264081120491028,5.67446136474609,1.9643563532305,0.687215456621076
"13",2004,0.140344727767627,0.0194200444966555,0.423982709646225,0.126745693430467,0.0443410379396435,1.93531510633238,0.323192149400711,6.0029935836792,1.63639856906625,0.572481865627659
"14",2005,0.193919555692629,0.019261684268713,0.819880545139313,0.197417739740955,0.0690651275864824,2.76718038517702,0.314930230379105,11.3387651443481,2.77452906783791,0.970648353658948
"15",2006,0.148565320632609,0.0195573139935732,0.398719519376755,0.106380288286509,0.0372163524556367,1.98159140496254,0.311879903078079,5.66541576385498,1.33878446023898,0.468363783713318
"16",2007,0.1339418070595,0.0229147970676422,0.40094867348671,0.099177552757434,0.0346965290145415,1.62921002773449,0.361367464065552,5.12327718734741,1.26361299164606,0.442065604653801
"17",2008,0.125963042337662,0.0430693775415421,0.296288758516312,0.075621750799432,0.0264557069396558,1.41480779704776,0.550370037555695,3.57327890396118,0.888500930857129,0.310835440780936
"18",2009,0.147001795277588,0.0288226678967476,0.40334278345108,0.107590633685264,0.0376397827891942,1.93379639746893,0.434532999992371,4.99346017837524,1.37301888111142,0.480340441173316
"19",2010,0.225019183093512,0.0442065894603729,0.627366483211517,0.147326896892863,0.0515412188599544,3.04373645092716,0.765261888504028,6.7744197845459,1.89442207645256,0.662749470156665
"20",2011,0.165396718166729,0.0241663325577974,0.479961514472961,0.124976346413708,0.0437220450486422,2.01890224310164,0.372082620859146,5.46389102935791,1.48847432575785,0.520731669568104
"21",2012,0.181184748369351,0.0468876026570797,0.719523310661316,0.16988382147005,0.0594325911141719,2.01225663938253,0.609977126121521,6.79703712463379,1.590681465924,0.556488077199389
"22",2013,0.239423510105561,0.0306938327848911,0.821918606758118,0.22728262753723,0.0795131364063189,3.45662763783252,0.50506454706192,11.7079401016235,3.48020292364514,1.21752310235034
"23",2014,0.230411558023129,0.0241455752402544,0.827977657318115,0.206536736508443,0.0722553407660763,3.24657354723029,0.376586407423019,13.2159042358398,3.28629797712555,1.14968689933942
"24",2015,0.222404638101644,0.0373516269028187,0.592307925224304,0.137311721601849,0.0480374842909007,2.88541139160626,0.530844628810883,8.54010486602783,1.84316557877326,0.644817765759167
"25",2016,0.165979752384273,0.0524319261312485,0.466939061880112,0.117728971611044,0.0411866048897698,2.16886238040398,0.676248371601105,7.24443960189819,1.71196085137581,0.598916767958541
"26",2017,0.160662152945906,0.0555945225059986,0.41167950630188,0.10919329236602,0.0382004610058997,1.86213168819079,0.714879095554352,5.33291292190552,1.30551246029133,0.456723822054061
"27",2018,0.199719643162869,0.0550460070371628,0.650312900543213,0.151443590768685,0.0529814135868377,2.73783153564429,0.658295571804047,11.0630970001221,2.60506227078193,0.911361655433644
"28",2019,0.133307024499244,0.0564193166792393,0.292849004268646,0.0784214629592391,0.027435165410694,1.55255054467446,0.689804136753082,3.64898180961609,0.945504860548293,0.330777841510562
