"","date","mean","sd","min","max","se","n"
"1",1993-01-15,17.9116446064008,0.123321356199353,17.7595615386963,18.1035919189453,0.00412841844947915,2416
"2",1993-02-15,18.120695268871,0.0297988791274096,18.0801944732666,18.1689395904541,0.000997574517138196,2416
"3",1993-03-15,17.9331783735199,0.0839526932495928,17.8170680999756,18.0611724853516,0.00281047710126384,2416
"4",1993-04-15,17.7983440105489,0.0450812682981686,17.7386684417725,17.883768081665,0.00150918174681131,2416
"5",1993-05-15,17.8708546264282,0.0693007168166874,17.787410736084,17.9829730987549,0.00231997414467003,2416
"6",1993-06-15,17.4206312239565,0.105979363027821,17.2522163391113,17.5618286132812,0.00354786203357048,2416
"7",1993-07-15,17.7961933549666,0.0148622262533671,17.7721500396729,17.8283729553223,0.000497541471775154,2416
"8",1993-08-15,18.132788613932,0.039553793841445,18.0747470855713,18.1930980682373,0.00132413895917545,2416
"9",1993-09-15,17.9605964643276,0.0235215318822261,17.9116592407227,17.9856777191162,0.000787428302569249,2416
"10",1993-10-15,18.153901550154,0.0240771229821937,18.120548248291,18.1862201690674,0.000806027778103437,2416
"11",1993-11-15,18.1439148298163,0.0248629280554317,18.105224609375,18.1724033355713,0.000832334107047839,2416
"12",1993-12-15,18.0500608303689,0.0167391741809793,18.0256271362305,18.0779075622559,0.000560375896337756,2416
"13",1994-01-15,18.1338355446493,0.0185751063559703,18.1021099090576,18.1545085906982,0.000621837240072677,2416
"14",1994-02-15,18.1152029053265,0.0158162638287499,18.0937385559082,18.1398162841797,0.000529479705744456,2416
"15",1994-03-15,18.0897902273974,0.0371132450062935,18.0369186401367,18.1329402923584,0.00124243691543855,2416
"16",1994-04-15,17.9939463264895,0.018535576399919,17.9580326080322,18.0165195465088,0.000620513899129155,2416
"17",1994-05-15,17.9385608876778,0.0550164818979386,17.8821506500244,18.0399303436279,0.00184178203916052,2416
"18",1994-06-15,17.8854748507999,0.0328286332263816,17.8371715545654,17.9414978027344,0.00109900133488549,2416
"19",1994-07-15,18.0170253538927,0.0112405820471249,17.9979763031006,18.0313682556152,0.000376299999743904,2416
"20",1994-08-15,17.3295834640793,0.072290548972794,17.2159252166748,17.4432373046875,0.0024200644989649,2416
"21",1994-09-15,17.5233405599531,0.0549813782022623,17.3590850830078,17.5953197479248,0.00184060687575541,2416
"22",1994-10-15,17.2347430424974,0.041360302801149,17.1440734863281,17.2858123779297,0.00138461530445936,2416
"23",1994-11-15,17.780004552658,0.09615065259843,17.6603164672852,17.9054985046387,0.00321882713870853,2416
"24",1994-12-15,18.0773949331006,0.0450588960176196,18.0135097503662,18.1499500274658,0.00150843279189691,2416
"25",1995-01-15,18.0447423576519,0.035763581839033,17.9994716644287,18.1058788299561,0.00119725435751003,2416
"26",1995-02-15,17.7013496926289,0.0955398267037884,17.599817276001,17.8939666748047,0.00319837857269713,2416
"27",1995-03-15,18.0630574510587,0.0457419303631387,18.013256072998,18.1412830352783,0.00153129867401639,2416
"28",1995-04-15,17.9404688576199,0.0354758084175423,17.8892154693604,18.0029411315918,0.00118762059139549,2416
"29",1995-05-15,17.8881091108385,0.0990126280924238,17.7909812927246,18.0694236755371,0.00331463724650739,2416
"30",1995-06-15,17.5698090002237,0.208584660068066,17.3031234741211,17.9200286865234,0.0069827707498716,2416
"31",1995-07-15,17.5822803555735,0.0206039831130745,17.5455741882324,17.6133041381836,0.000689757773011093,2416
"32",1995-08-15,17.6001425870996,0.246518377263758,17.2599411010742,17.947940826416,0.00825267454232474,2416
"33",1995-09-15,17.6884472472778,0.0242637536424116,17.6590156555176,17.7565574645996,0.000812275596685941,2416
"34",1995-10-15,17.9372627971978,0.0295782708996485,17.9006805419922,17.9967842102051,0.000990189234445361,2416
"35",1995-11-15,18.0996597918454,0.0316728930825009,18.0508480072021,18.145055770874,0.00106031072135471,2416
"36",1995-12-15,17.990907437754,0.0615495361969849,17.9026870727539,18.0887260437012,0.00206048853680909,2416
"37",1996-01-15,17.9358242971218,0.0525773663047494,17.8632164001465,18.0072574615479,0.00176012797594169,2416
"38",1996-02-15,17.8894772261184,0.0316094976646008,17.8553638458252,17.9539375305176,0.00105818843839467,2416
"39",1996-03-15,18.0854271176635,0.00173104546305834,18.0826301574707,18.0905075073242,5.79500602882173e-05,2416
"40",1996-04-15,18.007954875365,0.0429012697692083,17.9506454467773,18.0622997283936,0.00143620212329623,2416
"41",1996-05-15,17.9603947716833,0.0714158478296509,17.8674087524414,18.0639991760254,0.00239078220392352,2416
"42",1996-06-15,17.9012196892934,0.015604350575073,17.8752899169922,17.919261932373,0.000522385503952234,2416
"43",1996-07-15,18.2129736886119,0.0330641249922348,18.1711330413818,18.2697486877441,0.00110688487250469,2416
"44",1996-08-15,18.2166010149267,0.0258275534635368,18.183952331543,18.2628231048584,0.000864626788983804,2416
"45",1996-09-15,17.3520383542737,0.160832082169553,17.1644325256348,17.6664543151855,0.00538416180100696,2416
"46",1996-10-15,17.4177195315329,0.109590091139055,17.3045597076416,17.6141757965088,0.00366873806842669,2416
"47",1996-11-15,16.9636966771637,0.0974498989444564,16.871000289917,17.1957893371582,0.00326232189704287,2416
"48",1996-12-15,17.6101464443649,0.0897396668097103,17.5018615722656,17.7683792114258,0.00300420711809577,2416
"49",1997-01-15,17.991273396852,0.0356127008683758,17.9493160247803,18.0756931304932,0.00119220332821442,2416
"50",1997-02-15,18.032994628742,0.00952523234190369,18.0206298828125,18.0467662811279,0.000318875384992701,2416
"51",1997-03-15,17.983228207424,0.00418344275142566,17.9785957336426,17.996561050415,0.000140048753675773,2416
"52",1997-04-15,17.906679756594,0.0999083291894663,17.7763938903809,18.0559749603271,0.00334462255520178,2416
"53",1997-05-15,17.7097403553148,0.0178729561506039,17.6864547729492,17.7510166168213,0.00059833141795494,2416
"54",1997-06-15,17.7605124506729,0.0177916166847091,17.6975784301758,17.7840404510498,0.000595608423641382,2416
"55",1997-07-15,17.4444590933276,0.130436066749783,17.2709007263184,17.6318130493164,0.00436659700349714,2416
"56",1997-08-15,17.1826553684197,0.085949092518676,17.036693572998,17.3017711639404,0.00287731038812525,2416
"57",1997-09-15,17.3722397373212,0.129138781472536,17.2306842803955,17.6210861206055,0.00432316789569388,2416
"58",1997-10-15,17.662700656234,0.0105605749394956,17.6408500671387,17.6742076873779,0.000353535460207253,2416
"59",1997-11-15,17.950172720366,0.00573662965607689,17.9414710998535,17.9574775695801,0.000192044658280374,2416
"60",1997-12-15,17.8185319316308,0.0144349613909006,17.799467086792,17.8443737030029,0.000483237962671917,2416
"61",1998-01-15,17.5974391067265,0.0459176308373056,17.541841506958,17.6813621520996,0.00153718058369926,2416
"62",1998-02-15,17.819577276312,0.0794263742201007,17.7312564849854,17.9756889343262,0.0026589499078767,2416
"63",1998-03-15,17.9801693531062,0.0565029185427195,17.8969764709473,18.0468158721924,0.00189154335104859,2416
"64",1998-04-15,17.5770796987395,0.0299058946704763,17.5358867645264,17.6150569915771,0.00100115706728193,2416
"65",1998-05-15,17.8298090080552,0.131669165101376,17.6535739898682,17.9769802093506,0.00440787733110324,2416
"66",1998-06-15,17.2279373178419,0.129769601767192,17.0684070587158,17.3945693969727,0.00434428581251728,2416
"67",1998-07-15,17.1141874577036,0.0502908008948091,17.0583267211914,17.2100505828857,0.00168358082210502,2416
"68",1998-08-15,17.7576749909003,0.0121537382548221,17.7302341461182,17.772855758667,0.000406869651678477,2416
"69",1998-09-15,17.82348705917,0.0131546169831422,17.794153213501,17.8399600982666,0.0004403759829015,2416
"70",1998-10-15,17.4503748527426,0.0148336957953429,17.430347442627,17.4752407073975,0.000496586360082344,2416
"71",1998-11-15,17.7513550740994,0.045639842783153,17.693962097168,17.8250102996826,0.00152788109686946,2416
"72",1998-12-15,17.8144021547393,0.0418517441085925,17.7551002502441,17.8648452758789,0.00140106724289901,2416
"73",1999-01-15,17.5560515132171,0.0680653950513999,17.4714984893799,17.6550121307373,0.00227861938403464,2416
"74",1999-02-15,17.8312685339656,0.0127898778569964,17.8115749359131,17.8492641448975,0.000428165642502769,2416
"75",1999-03-15,17.6805458337266,0.0277285189433452,17.6388149261475,17.7174549102783,0.000928265247078421,2416
"76",1999-04-15,17.5918330167303,0.00588591509149782,17.5781745910645,17.5974216461182,0.000197042273979913,2416
"77",1999-05-15,17.4976576961429,0.00890249327006205,17.4739742279053,17.5073127746582,0.000298028002571391,2416
"78",1999-06-15,17.5433068133348,0.0373554993068358,17.4762363433838,17.5891437530518,0.0012505468418507,2416
"79",1999-07-15,16.4759731442723,0.286238326747053,16.1460838317871,16.9802894592285,0.00958237587965137,2416
"80",1999-08-15,17.0946182249398,0.151489455114892,16.9090366363525,17.3094997406006,0.00507139947753142,2416
"81",1999-09-15,17.3221284924753,0.120668493798779,17.1328411102295,17.5063610076904,0.00403960880274811,2416
"82",1999-10-15,17.5787791826867,0.0445294747634781,17.5313930511475,17.6836776733398,0.00149070940204373,2416
"83",1999-11-15,17.7769693680946,0.0191293652526188,17.7409191131592,17.8006401062012,0.000640392117550774,2416
"84",1999-12-15,17.6582925027569,0.00375703280431287,17.6460742950439,17.6621704101562,0.000125773864500405,2416
"85",2000-01-15,17.8461928280774,0.0174427802265466,17.8247318267822,17.8739185333252,0.000583930455492858,2416
"86",2000-02-15,17.8318240334656,0.0144897239597446,17.8166255950928,17.8555660247803,0.000485071244485581,2416
"87",2000-03-15,17.8212408869472,0.00827035129759743,17.8074245452881,17.8321475982666,0.000276865840053535,2416
"88",2000-04-15,17.4724727119042,0.0312695305870109,17.4282722473145,17.5210208892822,0.00104680738973779,2416
"89",2000-05-15,17.2309290660138,0.0112234077295032,17.211389541626,17.2468872070312,0.000375725056587976,2416
"90",2000-06-15,17.4871403334157,0.0277196329310752,17.4458656311035,17.5270881652832,0.000927967770808874,2416
"91",2000-07-15,17.5268944233459,0.00905063676524052,17.5165214538574,17.5500717163086,0.000302987389635513,2416
"92",2000-08-15,17.5994844831378,0.0211155650306657,17.5428867340088,17.6245021820068,0.000706883956926792,2416
"93",2000-09-15,17.3661135103529,0.0152717429091699,17.3372535705566,17.3892784118652,0.000511250825688294,2416
"94",2000-10-15,17.3159700797883,0.0308210682501558,17.2786045074463,17.3896141052246,0.00103179425460508,2416
"95",2000-11-15,17.2219280312393,0.042066682589177,17.1652774810791,17.2799663543701,0.00140826271995258,2416
"96",2000-12-15,17.6766117913834,0.0171460463299201,17.6487979888916,17.716625213623,0.000573996720321812,2416
"97",2001-01-15,17.8086922334519,0.0197713231707169,17.7838249206543,17.8371963500977,0.000661882887637516,2416
"98",2001-02-15,17.8377032303652,0.00825303206734911,17.8214073181152,17.8572864532471,0.000276286045670052,2416
"99",2001-03-15,17.6774640517519,0.00544653670569294,17.6668491363525,17.6889305114746,0.000182333241496302,2416
"100",2001-04-15,17.4642745406422,0.0259347557650188,17.4206771850586,17.493257522583,0.000868215591222966,2416
"101",2001-05-15,17.3629230797686,0.0459874761622733,17.2933349609375,17.4483795166016,0.00153951878964422,2416
"102",2001-06-15,17.6050552635003,0.0550689964036101,17.5117855072021,17.6755046844482,0.00184354006275644,2416
"103",2001-07-15,17.4915860765028,0.0531267191201214,17.4160766601562,17.5752487182617,0.00177851861295827,2416
"104",2001-08-15,17.5189277249456,0.1668205793587,17.2745265960693,17.7494411468506,0.00558463820705915,2416
"105",2001-09-15,16.7340703018454,0.106926154069883,16.6203022003174,16.9490737915039,0.00357955767596618,2416
"106",2001-10-15,17.0686241593582,0.0931937160587648,16.9732913970947,17.246618270874,0.00311983802813989,2416
"107",2001-11-15,17.4032215669455,0.0171109364864693,17.3778686523438,17.4570960998535,0.000572821351108173,2416
"108",2001-12-15,17.5332200116669,0.0363300316605848,17.4776420593262,17.5948448181152,0.00121621734953404,2416
"109",2002-01-15,17.4553978253674,0.00736384083177918,17.4424514770508,17.4729404449463,0.000246518667049046,2416
"110",2002-02-15,17.4993298930048,0.00368366000220313,17.491268157959,17.5122833251953,0.000123317569506129,2416
"111",2002-03-15,17.6513467932379,0.00658420873240693,17.6439800262451,17.6707401275635,0.000220418990220553,2416
"112",2002-04-15,17.3689759701293,0.0166941063338265,17.3310737609863,17.3915672302246,0.000558867163889474,2416
"113",2002-05-15,17.6600014500271,0.0582005636301842,17.5799598693848,17.7449493408203,0.0019483752698318,2416
"114",2002-06-15,17.741956079243,0.0414080641638174,17.6681289672852,17.792896270752,0.00138621420749521,2416
"115",2002-07-15,17.7525824939968,0.0170263712874078,17.7257423400879,17.7742309570312,0.000569990369202455,2416
"116",2002-08-15,17.2038266035105,0.0644783813872555,17.0986442565918,17.2733192443848,0.0021585372356868,2416
"117",2002-09-15,16.532848045526,0.138162759167784,16.3716316223145,16.8142242431641,0.004625262821933,2416
"118",2002-10-15,17.2280762306112,0.017130993748701,17.2063007354736,17.2628803253174,0.000573492806353198,2416
"119",2002-11-15,17.4644838911019,0.0375113242672473,17.4246463775635,17.5302410125732,0.00125576338066668,2416
"120",2002-12-15,17.9245653807722,0.0285696931028982,17.8843574523926,17.9565124511719,0.000956425162169769,2416
"121",2003-01-15,17.962442884382,0.0207069791509294,17.9400310516357,18.0048274993896,0.000693205762524088,2416
"122",2003-02-15,18.0245689129987,0.0272575961017339,17.9811687469482,18.0558223724365,0.000912500203557115,2416
"123",2003-03-15,18.0453035618296,0.0138766579135525,18.0303745269775,18.0713920593262,0.000464547685113129,2416
"124",2003-04-15,18.0633067295251,0.0181314784019533,18.0384616851807,18.0937519073486,0.000606985945159021,2416
"125",2003-05-15,17.8534190157391,0.0318241847731533,17.8061332702637,17.8988933563232,0.00106537550028832,2416
"126",2003-06-15,18.0641418971763,0.0284562557551967,18.0274429321289,18.1092662811279,0.000952627629823843,2416
"127",2003-07-15,17.8275003212177,0.020929303629421,17.7887935638428,17.8536605834961,0.000700648499995219,2416
"128",2003-08-15,17.695122547497,0.0667183244793439,17.5823841094971,17.768238067627,0.00223352361819311,2416
"129",2003-09-15,17.600094053919,0.0287850143181926,17.5678119659424,17.6545658111572,0.000963633452000356,2416
"130",2003-10-15,17.715623084283,0.0226268297335645,17.658805847168,17.7415943145752,0.000757476435584004,2416
"131",2003-11-15,17.5001096685991,0.0193669487481462,17.463005065918,17.5257663726807,0.000648345679824621,2416
"132",2003-12-15,17.6641826519114,0.00385417613289972,17.6581439971924,17.6750755310059,0.000129025923367918,2416
"133",2004-01-15,17.604237682772,0.0176748819811647,17.5816020965576,17.6311645507812,0.000591700505997109,2416
"134",2004-02-15,17.7184885929752,0.0662316002169503,17.6464729309082,17.8300514221191,0.00221722959186545,2416
"135",2004-03-15,17.8198377083469,0.0291431740726291,17.789192199707,17.876651763916,0.000975623535337471,2416
"136",2004-04-15,17.6785575656701,0.0021701007708312,17.6764984130859,17.6878623962402,7.26482771162993e-05,2416
"137",2004-05-15,17.6201606207336,0.079026822504763,17.5257968902588,17.7683601379395,0.00264557414941962,2416
"138",2004-06-15,17.3849964433948,0.0811655672500915,17.266902923584,17.5411434173584,0.00271717272356332,2416
"139",2004-07-15,17.650639363472,0.00703316832305117,17.6383438110352,17.6630401611328,0.000235448771875647,2416
"140",2004-08-15,17.5411249312344,0.027611305862889,17.4943084716797,17.5777282714844,0.000924341314851361,2416
"141",2004-09-15,17.5170227881299,0.0665715862187904,17.4220905303955,17.6708393096924,0.00222861127404783,2416
"142",2004-10-15,17.486241253796,0.0242578204482465,17.4332847595215,17.5231151580811,0.000812076971654474,2416
"143",2004-11-15,17.9576533053884,0.0246418432497247,17.9213562011719,18.0028400421143,0.000824932869996044,2416
"144",2004-12-15,17.8917551506434,0.039424793969601,17.8437156677246,17.9602756500244,0.00131982044154546,2416
"145",2005-01-15,17.7358423021455,0.0537024616016361,17.6557788848877,17.7985172271729,0.00179779269456172,2416
"146",2005-02-15,17.1325283532111,0.0340316685928556,17.1011276245117,17.2218933105469,0.00113927524652086,2416
"147",2005-03-15,17.7362915119588,0.0442226849757008,17.6857395172119,17.8108882904053,0.00148043902666832,2416
"148",2005-04-15,17.804203714756,0.0073356745464384,17.789005279541,17.8175048828125,0.00024557574673388,2416
"149",2005-05-15,17.7722070730285,0.00925802006887954,17.7578830718994,17.7861499786377,0.000309929942679393,2416
"150",2005-06-15,17.7501377483077,0.00656655028371586,17.7341403961182,17.7588329315186,0.000219827839850397,2416
"151",2005-07-15,17.7415176772124,0.0335592308246546,17.6970539093018,17.790885925293,0.00112345948793223,2416
"152",2005-08-15,17.596755497503,0.0138174564969498,17.5741500854492,17.6169681549072,0.000462565804374298,2416
"153",2005-09-15,17.3563326668266,0.0297709338698683,17.3165035247803,17.4091148376465,0.000996638996151688,2416
"154",2005-10-15,17.2425728041605,0.0472553184964172,17.178617477417,17.3469409942627,0.00158196223857004,2416
"155",2005-11-15,17.4865582099814,0.0459191577108287,17.4363441467285,17.5758972167969,0.00153723169871304,2416
"156",2005-12-15,17.6174797174946,0.0224222862341685,17.5874271392822,17.6474685668945,0.000750628950422857,2416
"157",2006-01-15,17.9123704378179,0.0240276771998927,17.8832321166992,17.9534549713135,0.000804372485896219,2416
"158",2006-02-15,18.144694112784,0.039027613111581,18.0933036804199,18.2098083496094,0.00130652405207518,2416
"159",2006-03-15,17.9974898802524,0.0327690381520999,17.9553413391113,18.0559520721436,0.00109700627570235,2416
"160",2006-04-15,17.6272564842211,0.116904559167919,17.4776020050049,17.8114414215088,0.00391360388639317,2416
"161",2006-05-15,17.3604147797389,0.0834571354965436,17.2309017181396,17.4747123718262,0.0027938873569282,2416
"162",2006-06-15,17.0392948760102,0.0638006656418137,16.9530982971191,17.1504249572754,0.0021358494038853,2416
"163",2006-07-15,17.5097240170106,0.166628080090779,17.2553062438965,17.7314338684082,0.00557819392560063,2416
"164",2006-08-15,17.2770316987638,0.0577843179478017,17.1979217529297,17.4543151855469,0.0019344406488738,2416
"165",2006-09-15,17.4763693888456,0.0313202518549833,17.4186706542969,17.5139904022217,0.00104850538126927,2416
"166",2006-10-15,17.4034790511163,0.00583651523117811,17.3979148864746,17.4154834747314,0.000195388519098918,2416
"167",2006-11-15,17.7053868067975,0.00677622049950683,17.6952152252197,17.7144775390625,0.000226846951655966,2416
"168",2006-12-15,17.6205711577902,0.0391865997348552,17.5785484313965,17.6992893218994,0.00131184643360726,2416
"169",2007-01-15,17.4347669549336,0.00748151635998968,17.4140644073486,17.4459133148193,0.000250458080599859,2416
"170",2007-02-15,17.5914586766666,0.00395323618927996,17.5811576843262,17.5970058441162,0.000132342148367143,2416
"171",2007-03-15,17.4499242850487,0.0336382910789596,17.4013004302979,17.5010242462158,0.00112610618127516,2416
"172",2007-04-15,17.4721567251824,0.069562062618341,17.3761367797852,17.5883388519287,0.00232872319562514,2416
"173",2007-05-15,17.3034445978948,0.0869077626193562,17.1743469238281,17.4329566955566,0.00290940370474605,2416
"174",2007-06-15,17.4909379032274,0.046609602444882,17.4362411499023,17.5890674591064,0.00156034565777301,2416
"175",2007-07-15,17.5705001464743,0.0116251857310952,17.5510444641113,17.5966014862061,0.000389175344238771,2416
"176",2007-08-15,17.9484015979514,0.0315737014901709,17.8983325958252,17.9998321533203,0.0010569900929378,2416
"177",2007-09-15,17.5176060128686,0.0776256713944158,17.419038772583,17.6568298339844,0.00259866793404267,2416
"178",2007-10-15,17.693283085002,0.0557007265801732,17.5879344940186,17.7560272216797,0.00186468843961827,2416
"179",2007-11-15,17.5375105047858,0.00429117234358793,17.5282363891602,17.5459175109863,0.000143655207979752,2416
"180",2007-12-15,17.786778844745,0.0564839216412019,17.7049770355225,17.8763637542725,0.00189090739340812,2416
"181",2008-01-15,17.8785637261852,0.0310415968411503,17.8389148712158,17.9312725067139,0.00103917687130472,2416
"182",2008-02-15,18.137226626573,0.00671981894149304,18.1263637542725,18.1478691101074,0.000224958801542639,2416
"183",2008-03-15,17.8335670106458,0.0235154617115484,17.8062267303467,17.8766441345215,0.000787225091986835,2416
"184",2008-04-15,17.7810917484839,0.0212567344716717,17.7545013427734,17.8207378387451,0.000711609874178382,2416
"185",2008-05-15,17.4930214202957,0.0297454250461402,17.4401302337646,17.554780960083,0.000995785039450684,2416
"186",2008-06-15,17.8388648830502,0.015809111956993,17.818733215332,17.8721504211426,0.000529240283147921,2416
"187",2008-07-15,17.7557219922148,0.0389245262490918,17.707103729248,17.8275184631348,0.00130307302203371,2416
"188",2008-08-15,17.9383865010659,0.0102200613131016,17.9079971313477,17.9544906616211,0.000342136114782998,2416
"189",2008-09-15,18.0681472606217,0.0131867114455934,18.0515670776367,18.090892791748,0.000441450406464404,2416
"190",2008-10-15,17.9500816310478,0.00295951213203763,17.9461040496826,17.9552001953125,9.90753334532793e-05,2416
"191",2008-11-15,17.8938008831037,0.0166993782334534,17.8682308197021,17.916971206665,0.000559043650820484,2416
"192",2008-12-15,17.5672344190395,0.00969872054419266,17.560152053833,17.5886917114258,0.000324683234639918,2416
"193",2009-01-15,17.5231446027756,0.0156363694627193,17.5020160675049,17.548713684082,0.000523457397503886,2416
"194",2009-02-15,17.5634725504364,0.0341918369672502,17.5242004394531,17.6257305145264,0.0011446371894337,2416
"195",2009-03-15,17.719233235776,0.0353791226700659,17.6669692993164,17.7753391265869,0.00118438385093151,2416
"196",2009-04-15,17.8262807928174,0.0184085413166611,17.7970294952393,17.8737239837646,0.000616261156557906,2416
"197",2009-05-15,17.6591162918419,0.018749005056737,17.6234073638916,17.6950531005859,0.000627658831942175,2416
"198",2009-06-15,17.7330163275169,0.0457110180286771,17.6542739868164,17.7886276245117,0.00153026382445066,2416
"199",2009-07-15,17.8138204931423,0.0107635224732478,17.7986965179443,17.8501644134521,0.000360329517363619,2416
"200",2009-08-15,17.451592446163,0.0321315004527537,17.3863468170166,17.4998722076416,0.00107566348089912,2416
"201",2009-09-15,17.8455612888399,0.014366635602544,17.8186779022217,17.8632030487061,0.00048095062612357,2416
"202",2009-10-15,17.4852672617956,0.0311202732565914,17.4439659118652,17.5409107208252,0.00104181071490697,2416
"203",2009-11-15,16.9730887239343,0.0137045291759495,16.9484825134277,17.0059604644775,0.000458785346148442,2416
"204",2009-12-15,16.9711141191571,0.0400621305005191,16.9194030761719,17.0505790710449,0.00134115650185051,2416
"205",2010-01-15,17.3649562660432,0.0124031364495496,17.345775604248,17.396484375,0.000415218733622688,2416
"206",2010-02-15,17.9197520341305,0.0679524238442988,17.8190288543701,18.0175666809082,0.00227483745663756,2416
"207",2010-03-15,18.0347478247636,0.0360921400932894,17.9650936126709,18.0986251831055,0.00120825347396807,2416
"208",2010-04-15,18.0736123426071,0.0437851099179446,18.0045375823975,18.1258277893066,0.00146579036404291,2416
"209",2010-05-15,17.8626468252662,0.0603586011145459,17.7658767700195,17.9513530731201,0.00202061970534307,2416
"210",2010-06-15,17.3151588779412,0.0156125158178108,17.2718296051025,17.3357105255127,0.000522658851082058,2416
"211",2010-07-15,17.4050081518312,0.0421317741186586,17.3532886505127,17.4808807373047,0.00141044178349436,2416
"212",2010-08-15,17.3041296242089,0.146915571976779,17.1203327178955,17.5248603820801,0.00491827998456523,2416
"213",2010-09-15,17.4666166708169,0.0980137405154489,17.3473930358887,17.6598606109619,0.00328119757288693,2416
"214",2010-10-15,17.5639855395879,0.0806369964743073,17.4644222259521,17.7012996673584,0.00269947780510106,2416
"215",2010-11-15,17.5824346439728,0.0149259506871047,17.5608730316162,17.604434967041,0.000499674769170129,2416
"216",2010-12-15,17.817177085687,0.0196209962942525,17.7956123352051,17.8573017120361,0.000656850407705612,2416
"217",2011-01-15,17.9157665944257,0.00434041811745866,17.9095363616943,17.926399230957,0.000145303804521928,2416
"218",2011-02-15,18.0244389401366,0.0248039528409313,17.9968948364258,18.0707855224609,0.000830359798857361,2416
"219",2011-03-15,17.9239747982151,0.0640659139022805,17.8414173126221,18.030481338501,0.00214472909711891,2416
"220",2011-04-15,17.9315325313846,0.0373515831456788,17.876335144043,17.9846725463867,0.00125041574086001,2416
"221",2011-05-15,17.7821871239618,0.0359642310629481,17.7344226837158,17.8511543273926,0.00120397147434538,2416
"222",2011-06-15,17.7715195677928,0.0199449214974369,17.7323703765869,17.79931640625,0.000667694423910851,2416
"223",2011-07-15,17.4804907579296,0.054530173257706,17.3723850250244,17.5317211151123,0.00182550192658025,2416
"224",2011-08-15,17.7593223156519,0.0308421985391704,17.7134952545166,17.821159362793,0.00103250163147555,2416
"225",2011-09-15,17.7836333694837,0.0373133927066574,17.7430839538574,17.8826866149902,0.00124913724281304,2416
"226",2011-10-15,17.9589668559712,0.0364337061655049,17.8947429656982,18.0047912597656,0.0012196880520307,2416
"227",2011-11-15,17.8011029713991,0.0579434313687881,17.7263813018799,17.8799152374268,0.001939767275202,2416
"228",2011-12-15,17.4626728193649,0.0274008676480673,17.4375686645508,17.5252475738525,0.000917296492808202,2416
"229",2012-01-15,17.6953503209234,0.00380687939972562,17.6902637481689,17.702112197876,0.00012744257469374,2416
"230",2012-02-15,18.0357919868255,0.00795028980568937,18.0227279663086,18.0465869903564,0.000266151168978842,2416
"231",2012-03-15,17.9938874118375,0.00561188369713679,17.9810657501221,18.0041370391846,0.000187868548527302,2416
"232",2012-04-15,17.8155900516257,0.00794470452192158,17.8023109436035,17.8292980194092,0.000265964190913865,2416
"233",2012-05-15,17.7023968546596,0.0105978556708125,17.6829147338867,17.7172927856445,0.000354783504047525,2416
"234",2012-06-15,17.5462921620994,0.0972946731000943,17.3930530548096,17.7070598602295,0.00325712541478343,2416
"235",2012-07-15,17.7630116576391,0.056101542894938,17.7071323394775,17.8733177185059,0.00187810653296175,2416
"236",2012-08-15,17.9671687321947,0.096199199487433,17.820442199707,18.097936630249,0.00322045233874202,2416
"237",2012-09-15,18.0118277159748,0.0576881044483183,17.9478149414062,18.1123714447021,0.00193121971781532,2416
"238",2012-10-15,18.1251705695462,0.0264359889218855,18.0758838653564,18.1526699066162,0.000884995330564741,2416
"239",2012-11-15,18.1395312855575,0.0433606419180183,18.0812873840332,18.2125453948975,0.00145158048526671,2416
"240",2012-12-15,17.709947873425,0.113635226269921,17.5847244262695,17.9254379272461,0.00380415670976817,2416
"241",2013-01-15,17.666532105168,0.0738850446639231,17.5900344848633,17.8245849609375,0.00247344329426643,2416
"242",2013-02-15,17.9189756777113,0.0509264221895308,17.8670501708984,18.0374851226807,0.00170485946159524,2416
"243",2013-03-15,17.284280274088,0.0180228142862163,17.2566833496094,17.3165664672852,0.0006033482058896,2416
"244",2013-04-15,17.9000402175828,0.0321490750040607,17.85622215271,17.9472465515137,0.00107625182264375,2416
"245",2013-05-15,17.1834568061576,0.0646147412053586,17.0804786682129,17.3082256317139,0.00216310214160556,2416
"246",2013-06-15,17.4000464717284,0.118525157685657,17.2625045776367,17.6070690155029,0.00396785652377912,2416
"247",2013-07-15,17.3190221154927,0.0548407202147263,17.229907989502,17.4081058502197,0.0018358980803877,2416
"248",2013-08-15,16.849691807829,0.169248161770524,16.6407814025879,17.1811656951904,0.00566590617495599,2416
"249",2013-09-15,17.8546495208677,0.0788441950943909,17.7378749847412,17.9590625762939,0.00263946034728837,2416
"250",2013-10-15,17.9376876156851,0.0564933707359736,17.8732814788818,18.0376682281494,0.00189122371994221,2416
"251",2013-11-15,17.8185513098508,0.0144021017071141,17.7980499267578,17.8561401367188,0.000482137921860097,2416
"252",2013-12-15,17.9851879931444,0.0116692438295208,17.9719142913818,18.0152320861816,0.000390650273415636,2416
"253",2014-01-15,18.038649582705,0.0172491668033189,18.020694732666,18.0759563446045,0.00057744887555282,2416
"254",2014-02-15,17.5382595109624,0.0658841665684557,17.4482097625732,17.6887359619141,0.00220559858545569,2416
"255",2014-03-15,17.8451950763235,0.138004577540099,17.661678314209,18.0574607849121,0.00461996738916913,2416
"256",2014-04-15,18.0308995475832,0.0481827253760797,17.9454612731934,18.0973834991455,0.00161300895902601,2416
"257",2014-05-15,17.7519576723212,0.0411193316700757,17.7016124725342,17.8222389221191,0.0013765483346013,2416
"258",2014-06-15,17.7808015299159,0.0832257903989233,17.6584129333496,17.9076061248779,0.00278614263696528,2416
"259",2014-07-15,17.6855297341252,0.236863169589724,17.3645401000977,18.038064956665,0.00792944798430181,2416
"260",2014-08-15,17.3877435180525,0.203156097304047,17.1838474273682,17.7559719085693,0.00680103922047696,2416
"261",2014-09-15,17.4201734610741,0.0834182907274044,17.3439388275146,17.6447830200195,0.00279258695392809,2416
"262",2014-10-15,18.1591069050972,0.0217303078013115,18.1217975616455,18.1999073028564,0.000727463647859769,2416
"263",2014-11-15,17.9304207839713,0.0307686386511468,17.897289276123,17.9886684417725,0.00103003907342221,2416
"264",2014-12-15,18.1726810655847,0.00854667836926565,18.1661167144775,18.1975517272949,0.000286116417698185,2416
"265",2015-01-15,18.1663995918059,0.00746038425693267,18.1516418457031,18.179666519165,0.000249750643000845,2416
"266",2015-02-15,18.245301946899,0.0224008157204477,18.2115058898926,18.2765979766846,0.000749910183879117,2416
"267",2015-03-15,18.2510398057912,0.0314417480241796,18.2123241424561,18.3077087402344,0.00105257269809022,2416
"268",2015-04-15,18.1190584661155,0.0263349628277385,18.0832557678223,18.1650409698486,0.000881613288688061,2416
"269",2015-05-15,18.0611173001346,0.00566479828291337,18.0490417480469,18.0690155029297,0.000189639965570538,2416
"270",2015-06-15,18.10605169211,0.054283455498451,18.0321350097656,18.1961708068848,0.00181724257734413,2416
"271",2015-07-15,17.6626798577656,0.222925782452752,17.4265785217285,18.0863876342773,0.00746286727219227,2416
"272",2015-08-15,18.2175097781301,0.0888085190877148,18.0817832946777,18.3278694152832,0.00297303516578231,2416
"273",2015-09-15,18.1455204747371,0.0734891948326401,18.0525665283203,18.2478885650635,0.0024601914634639,2416
"274",2015-10-15,18.2007524777722,0.00694981174114982,18.1918468475342,18.2263984680176,0.000232658250742788,2416
"275",2015-11-15,18.1773052081367,0.0179191279057817,18.1536121368408,18.2150058746338,0.000599877105837358,2416
"276",2015-12-15,18.2087290373859,0.0187756045155879,18.1820755004883,18.2385120391846,0.000628549299741515,2416
"277",2016-01-15,18.2140267274238,0.0273491342007182,18.1819896697998,18.2635097503662,0.000915564616634656,2416
"278",2016-02-15,18.2474236796234,0.0450061094984262,18.1878070831299,18.3190689086914,0.00150666566212768,2416
"279",2016-03-15,18.2383777629461,0.0362646213559397,18.1864471435547,18.2861461639404,0.00121402761438349,2416
"280",2016-04-15,18.1005070351607,0.00942074285803774,18.0839576721191,18.116418838501,0.000315377399515868,2416
"281",2016-05-15,17.6855308993763,0.0413067189260222,17.6366386413574,17.7449607849121,0.00138282148167403,2416
"282",2016-06-15,17.7384377899549,0.00968974698288743,17.7245922088623,17.7604274749756,0.000324382827498837,2416
"283",2016-07-15,17.4383257232754,0.144453846421865,17.2501201629639,17.7091102600098,0.00483586900959967,2416
"284",2016-08-15,17.8029234685645,0.0797886940936634,17.6780986785889,17.9286041259766,0.00267107925916449,2416
"285",2016-09-15,17.6259693073121,0.143154438670115,17.492977142334,17.9266147613525,0.0047923688478998,2416
"286",2016-10-15,17.8207736062688,0.0497196447742614,17.7427501678467,17.8868980407715,0.00166446027771374,2416
"287",2016-11-15,17.7392125619168,0.0394715856189759,17.6766796112061,17.8111610412598,0.00132138688157267,2416
"288",2016-12-15,18.2034603231001,0.0168943996532168,18.1727485656738,18.2277641296387,0.000565572366139614,2416
"289",2017-01-15,18.2910834929801,0.012432572384823,18.2757759094238,18.3125438690186,0.000416204157899601,2416
"290",2017-02-15,18.2905722256528,0.0143909762654715,18.2676639556885,18.3139114379883,0.000481765476405788,2416
"291",2017-03-15,18.3179224713749,0.00395752318002136,18.3110446929932,18.3265724182129,0.000132485663587985,2416
"292",2017-04-15,18.3299491073912,0.00619245032707929,18.3183326721191,18.3378047943115,0.000207304127733323,2416
"293",2017-05-15,18.4348397878622,0.0508306241919172,18.3623142242432,18.5044498443604,0.00170165244025717,2416
"294",2017-06-15,18.1955159334157,0.0389465278044059,18.1577529907227,18.2859745025635,0.00130380956621125,2416
"295",2017-07-15,18.338700113707,0.0552672899299129,18.2247581481934,18.3942909240723,0.00185017831810515,2416
"296",2017-08-15,18.4553488603491,0.0278010279257817,18.4124946594238,18.5012512207031,0.000930692624055689,2416
"297",2017-09-15,17.6086714172995,0.0453480855031415,17.5366649627686,17.7162837982178,0.00151811396346539,2416
"298",2017-10-15,17.9240434130296,0.125043944165154,17.7752361297607,18.1348476409912,0.00418608537885809,2416
"299",2017-11-15,18.2838236196152,0.0201080976565527,18.2553615570068,18.3085536956787,0.000673157058174456,2416
"300",2017-12-15,18.2153230945006,0.00843301345863379,18.1982822418213,18.227445602417,0.000282311267247581,2416
"301",2018-01-15,18.270019232832,0.0165924419897233,18.249303817749,18.2904071807861,0.000555463755373829,2416
"302",2018-02-15,18.1956648376604,0.0493872084784118,18.1275157928467,18.2954921722412,0.00165333133639036,2416
"303",2018-03-15,18.0797310886004,0.0079121114618852,18.0591125488281,18.1034870147705,0.000264873075842428,2416
"304",2018-04-15,18.2470031274076,0.0139706420948267,18.2215118408203,18.2657089233398,0.000467693985477393,2416
"305",2018-05-15,18.2880312204361,0.0255614768027985,18.2522392272949,18.3249435424805,0.000855719363465452,2416
"306",2018-06-15,18.0901263407524,0.129137566066023,17.8958358764648,18.2576675415039,0.00432312720763444,2416
"307",2018-07-15,17.9039738249305,0.023838846045078,17.8526706695557,17.9305973052979,0.000798051001545097,2416
"308",2018-08-15,18.012972399099,0.0216352709652273,17.9497337341309,18.0358657836914,0.000724282107860843,2416
"309",2018-09-15,18.2707910766665,0.0320325253808121,18.2243785858154,18.3192329406738,0.00107235010091665,2416
"310",2018-10-15,18.4012662859152,0.00949877622228609,18.3844871520996,18.4146041870117,0.000317989715748565,2416
"311",2018-11-15,18.1797472767483,0.0869359963842167,18.077543258667,18.3323097229004,0.0029103488840673,2416
"312",2018-12-15,18.3605719710028,0.00559918556484808,18.3509922027588,18.3775634765625,0.000187443454243308,2416
"313",2019-01-15,18.2869489871903,0.0151733648982871,18.2685317993164,18.3129940032959,0.000507957433467607,2416
"314",2019-02-15,18.3277367171862,0.00298495305853297,18.3201293945312,18.3364543914795,9.99270171644559e-05,2416
"315",2019-03-15,18.4007416710948,0.0236192172929257,18.3707962036133,18.4398880004883,0.000790698508673091,2416
"316",2019-04-15,18.3282898340794,0.0186872331888525,18.2942905426025,18.3774261474609,0.000625590900426561,2416
"317",2019-05-15,17.9824517554795,0.131274280242684,17.8328495025635,18.207670211792,0.00439465780460528,2416
"318",2019-06-15,18.3052512762562,0.0412360021047319,18.2485103607178,18.3751220703125,0.00138045410072152,2416
"319",2019-07-15,18.1825324668,0.150025517211835,17.9696884155273,18.3743343353271,0.00502239135408762,2416
"320",2019-08-15,18.6362480785673,0.03561971157368,18.582727432251,18.686824798584,0.00119243802499375,2416
"321",2019-09-15,18.549498396204,0.0400402030966967,18.4953632354736,18.6132411956787,0.00134042244003608,2416
"322",2019-10-15,18.326276796543,0.0276757821428345,18.273624420166,18.3514423370361,0.000926499781737262,2416
"323",2019-11-15,18.0920972381996,0.0240245274424272,18.0437602996826,18.1141166687012,0.000804267041736076,2416
"324",2019-12-15,18.3106163850683,0.0175610184192254,18.2906608581543,18.3455085754395,0.00058788870531375,2416
